{
 "SoundBanksInfo": {
  "Platform": "Windows",
  "BasePlatform": "Windows",
  "SchemaVersion": "16",
  "SoundBankVersion": "150",
  "RootPaths": {
   "ProjectRoot": "../..",
   "SourceFilesRoot": "../../.cache/Windows",
   "SoundBanksRoot": ".",
   "ExternalSourcesInputFile": "",
   "ExternalSourcesOutputRoot": "."
  },
  "DialogueEvents": [],
  "SoundBanks": [
   {
    "Id": "1355168291",
    "Type": "User",
    "GUID": "{701ECBBD-9C7B-4030-8CDB-749EE5D1C7B9}",
    "Language": "SFX",
    "Hash": "{EA5C9EB4-9F09-036D-82B5-431F57A2DDB9}",
    "ObjectPath": "Init",
    "ShortName": "Init",
    "Path": "Init.bnk",
    "Plugins": {
     "AudioDevices": [
      {
       "Id": "2317455096",
       "Name": "No_Output",
       "ObjectPath": "\\Audio Devices\\Default Work Unit\\No_Output",
       "GUID": "{10B17685-84E5-4648-A169-4CC0015DC672}",
       "LibName": "No Output",
       "LibId": "11862023"
      },
      {
       "Id": "3859886410",
       "Name": "System",
       "ObjectPath": "\\Audio Devices\\Default Work Unit\\System",
       "GUID": "{EFC0B4EA-855B-4752-8C4F-1372BB46BE55}",
       "LibName": "System",
       "LibId": "11403271"
      }
     ]
    },
    "Busses": [
     {
      "Id": "3803692087",
      "Name": "Master Audio Bus",
      "ObjectPath": "\\Master-Mixer Hierarchy\\Default Work Unit\\Master Audio Bus",
      "GUID": "{1514A4D8-1DA6-412A-A17E-75CA0C2149F3}"
     }
    ]
   },
   {
    "Id": "2039884400",
    "Type": "Event",
    "GUID": "{A3A33FA6-7B95-4DAD-84F7-7B393305ABD7}",
    "Language": "SFX",
    "Hash": "{061CC040-1853-7C2C-52AE-41DEE3FC0FCF}",
    "ObjectPath": "Play_Unreal_Input_3D",
    "ShortName": "Play_Unreal_Input_3D",
    "Path": "Event/Play_Unreal_Input_3D.bnk",
    "Plugins": {
     "Custom": [
      {
       "Id": "424203525",
       "Name": "Audio Input",
       "ObjectPath": "\\Actor-Mixer Hierarchy\\Default Work Unit\\Unreal_Input_3D\\Audio Input",
       "GUID": "{E3FADA1F-76FC-43A5-A1EB-BBCBA84DB987}",
       "LibName": "Wwise Audio Input",
       "LibId": "13107202"
      }
     ]
    },
    "Events": [
     {
      "Id": "2039884400",
      "Name": "Play_Unreal_Input_3D",
      "ObjectPath": "\\Events\\Default Work Unit\\Play_Unreal_Input_3D",
      "GUID": "{A3A33FA6-7B95-4DAD-84F7-7B393305ABD7}",
      "MaxAttenuation": "2000",
      "DurationType": "Unknown",
      "PluginRefs": {
       "Custom": [
        {
         "Id": "424203525"
        }
       ]
      }
     }
    ]
   },
   {
    "Id": "3849618286",
    "Type": "Event",
    "GUID": "{3D68301A-A6F4-4063-A4C1-4F0C088DBD44}",
    "Language": "SFX",
    "Hash": "{ED3CD3AB-7475-20A2-B16B-5E50C408A97C}",
    "ObjectPath": "Play_Unreal_Input",
    "ShortName": "Play_Unreal_Input",
    "Path": "Event/Play_Unreal_Input.bnk",
    "Plugins": {
     "Custom": [
      {
       "Id": "432045460",
       "Name": "Audio Input",
       "ObjectPath": "\\Actor-Mixer Hierarchy\\Default Work Unit\\Unreal_Input\\Audio Input",
       "GUID": "{4C14E751-3335-4995-A6E4-2BE8A1FD4A89}",
       "LibName": "Wwise Audio Input",
       "LibId": "13107202"
      }
     ]
    },
    "Events": [
     {
      "Id": "3849618286",
      "Name": "Play_Unreal_Input",
      "ObjectPath": "\\Events\\Default Work Unit\\Play_Unreal_Input",
      "GUID": "{3D68301A-A6F4-4063-A4C1-4F0C088DBD44}",
      "DurationType": "Unknown",
      "PluginRefs": {
       "Custom": [
        {
         "Id": "432045460"
        }
       ]
      }
     }
    ]
   }
  ],
  "FileHash": "{028C2DC0-A728-FB52-0DEA-B60CF93221DC}"
 }
}