{
 "SoundBanksInfo": {
  "Platform": "Mac",
  "BasePlatform": "Mac",
  "SchemaVersion": "16",
  "SoundBankVersion": "150",
  "SoundBanks": [
   {
    "Id": "2039884400",
    "Type": "Event",
    "GUID": "{A3A33FA6-7B95-4DAD-84F7-7B393305ABD7}",
    "Language": "SFX",
    "Hash": "{061CC040-1853-7C2C-52AE-41DEE3FC0FCF}",
    "ObjectPath": "Play_Unreal_Input_3D",
    "ShortName": "Play_Unreal_Input_3D",
    "Path": "Event/Play_Unreal_Input_3D.bnk",
    "Plugins": {
     "Custom": [
      {
       "Id": "424203525",
       "Name": "Audio Input",
       "ObjectPath": "\\Actor-Mixer Hierarchy\\Default Work Unit\\Unreal_Input_3D\\Audio Input",
       "GUID": "{E3FADA1F-76FC-43A5-A1EB-BBCBA84DB987}",
       "LibName": "Wwise Audio Input",
       "LibId": "13107202"
      }
     ]
    },
    "Events": [
     {
      "Id": "2039884400",
      "Name": "Play_Unreal_Input_3D",
      "ObjectPath": "\\Events\\Default Work Unit\\Play_Unreal_Input_3D",
      "GUID": "{A3A33FA6-7B95-4DAD-84F7-7B393305ABD7}",
      "MaxAttenuation": "2000",
      "DurationType": "Unknown",
      "PluginRefs": {
       "Custom": [
        {
         "Id": "424203525"
        }
       ]
      }
     }
    ]
   }
  ],
  "FileHash": "{097E9B46-0AFD-216F-3125-989E3D4B44DC}"
 }
}